OPTION ID,CHOICE ID,PART NUMBER,DESCRIPTION,EXCLUDE,LIST PRICE,CJ PRICE,DEALER TYPE 1,DEALER TYPE 2,IMAGE,DEALER ONLY,TYPE,CATEGORIES
A,1,DG2950-XL,"Gloves, Nitrile, XL - 50 Pack",,10.69,10.69,10.69,10.69,,no,1,
A,2,AP71010,"Dynasolve CU-6 Gun Cleaner, 1 Gal",,72.5,72.5,72.5,72.5,,no,1,
A,3,AP71004,"Ecolink Gun Cleaner, 5 Gal",,285,285,285,285,,no,1,
A,4,DG44-2XL,"Middleweight, w/hood, XXL, 25 Case",,66.36,66.36,66.36,66.36,,no,1,
A,5,41-1497,"Fabric Stretch Sock, 12-Pack",,15,15,15,15,,no,1,
A,6,66057,3M 6000 Series Full Face Mask w OV Cartridge,,165.28,165.28,165.28,165.28,,no,1,
A,7,7142,"Lense Covers, 25 Pack",,37.5,37.5,37.5,37.5,,no,1,
A,8,46465,"Organic Vapor Cartridge, 2 Pack",,18.8,18.8,18.8,18.8,,no,1,
A,9,U94048,"Bung Wrench, 55 Gal",,41,41,41,41,,no,1,
A,10,206996,"Fluid, Graco TSL,1 Gal",,111,111,111,111,,no,1,
A,11,,"Drum Heater, 55 Gal, 110 V, 80 Degree Power Blanket",,611,611,501,501,,no,1,
A,12,15C381,"Dryer, Desiccand, Replacement Cartridge",,64.5,64.5,64.5,64.5,,no,1,
A,13,289103M,"3M Chemical Sorbent Spill Response Pack, EA",,297.99,297.99,297.99,297.99,,no,1,
A,14,RAS,RAS - Respiratory Alarm Shut Down,,506,506,506,506,,no,1,
A,15,SW-2173,"2.38"" Non-Insulated Sleeve, 100' w/End Straps",,583,583,524.7,524.7,,,,
A,16,SW-2173,"2.38"" Non-Insulated Sleeve, 150' w/End Straps",,874.5,874.5,787.05,787.05,,,,
A,17,SW-2173,"2.38"" Non-Insulated Sleeve, 200' w/End Straps",,"1,166.00","1,166.00","1,049.40","1,049.40",,,,
A,18,SW-2173,"2.38"" Non-Insulated Sleeve, 250' w/End Straps",,"1,457.50","1,457.50","1,311.75","1,311.75",,,,
A,19,SW-2173,"2.38"" Non-Insulated Sleeve, 300' w/End Straps",,"1,749.00","1,749.00","1,574.10","1,574.10",,,,
A,20,SW-2175,"2.75"" Insulated Sleeve w/Radiant Liner 100'",,981.26,981.26,883.13,883.13,,,,
A,21,SW-2175,"2.75"" Insulated Sleeve w/Radiant Liner 150'",,"1,471.89","1,471.89","1,324.70","1,324.70",,,,
A,22,SW-2175,"2.75"" Insulated Sleeve w/Radiant Liner 200'",,"1,962.52","1,962.52","1,766.27","1,766.27",,,,
A,23,SW-2175,"2.75"" Insulated Sleeve w/Radiant Liner 250'",,"2,453.15","2,453.15","2,207.84","2,207.84",,,,
A,24,SW-2175,"2.75"" Insulated Sleeve w/Radiant Liner 300'",,"2,943.78","2,943.78","2,649.40","2,649.40",,,,
A,25,SW-2174,"3.5"" Non-Insulated Coupler Guard 3' (Qty 2)",,66.96,66.96,60.26,60.26,,,,
A,26,SW-2174,"3.5"" Non-Insulated Coupler Guard 3' (Qty 3)",,100.44,100.44,90.4,90.4,,,,
A,27,SW-2174,"3.5"" Non-Insulated Coupler Guard 3' (Qty 4)",,133.92,133.92,120.53,120.53,,,,
A,28,SW-2174,"3.5"" Non-Insulated Coupler Guard 3' (Qty 5)",,167.4,167.4,150.66,150.66,,,,
A,29,SW-2174,"3.5"" Non-Insulated Coupler Guard 3' (Qty 6)",,200.88,200.88,180.79,180.79,,,,
A,30,SW-2176,"4"" Insulated Coupler Guard, 3' w/Radiant Liner (QTY 2 )",,93.9,93.9,84.51,76.06,,,,
A,31,SW-2176,"4"" Insulated Coupler Guard, 3' w/Radiant Liner (QTY 3 )",,140.85,140.85,126.77,114.09,,,,
A,32,SW-2176,"4"" Insulated Coupler Guard, 3' w/Radiant Liner (QTY 4 )",,187.8,187.8,169.02,152.12,,,,
A,33,SW-2176,"4"" Insulated Coupler Guard, 3' w/Radiant Liner (QTY 5 )",,234.75,234.75,211.28,190.15,,,,
A,34,SW-2176,"4"" Insulated Coupler Guard, 3' w/Radiant Liner (QTY 6 )",,281.7,281.7,253.53,228.18,,,,
A,35,SW-2413,"2.38"" Whip Hose Cover, 7' (QTY 1)",,60,60,54,54,,,,
B,A,,16’ Bumper Pull,CC-7:CC-8:CC-9:CC-10:CC-11:CC-12:CC-13:CC-14:CC-15:CC-16:CC-17:CC-18:CC-19:CC-20:CC-21:CC-22:CC-23:CC-24:CC-25:CC-26:CC-27:CC-28:CC-29:CC-30:CC-31:CC-32:CC-33:CC-34:CC-35:CC-36:CC-37:CC-38:CC-39:CC-40:CC-41:CC-42:CC-43:CC-44:CC-45:CC-46,"20,476.00","20,746.00","18,201.00","18,201.00",16BumperPull.jpg,no,1,premium
B,B,,20’ Bumper Pull,CC-41:CC-42:CC-43:CC-44:CC-45:CC-46,"26,948.00","26,948.00","23,954.00","23,954.00",20BumperPull.jpg,no,1,premium
B,C,,28’ Gooseneck,CC-41:CC-42:CC-43:CC-44:CC-45:CC-46,"33,160.00","33,160.00","29,475.00","29,475.00",28Gooseneck.jpg,no,1,eco
B,D,,Custom Box Truck,CC-41:CC-42:CC-43:CC-44:CC-45:CC-46,"15,155.00","15,155.00","13,471.00","13,471.00",BoxTruck.jpg,no,1,eco
B,E,,AiMS Trailer,CC-4:CC-5:CC-6:CC-7:CC-8:CC-9:CC-10:CC-11:CC-12:CC-13:CC-14:CC-15:CC-16:CC-17:CC-18:CC-19:CC-20:CC-21:CC-22:CC-23:CC-24:CC-25:CC-26:CC-27:CC-28:CC-29:CC-30:CC-31:CC-32:CC-33:CC-34:CC-35:CC-36:CC-37:CC-38:CC-39:CC-40,"28,965.00","28,965.00","25,745.00","25,745.00",AimsTrailer.jpg,no,1,aims
CC,4,AP9025,"E-20, AP: 6.0 kW Heater, 50' Hose, 10' Whip & Fusion AP",B-B:B-C:B-D:B-E,"23,040.00","18,432.00","16,128.00","13,824.00",,no,2,
CC,5,CS9025,"E-20, CS: 6.0 kW Heater, 50' Hose, 10' Whip & Fusion CS",B-B:B-C:B-D:B-E,"23,300.00","18,640.00","16,310.00","13,980.00",,,2,
CC,6,P29025,"E-20, P2: 6.0 kW Heater, 50' Hose, 10' Whip & P2 ",B-B:B-C:B-D:B-E,"23,570.00","18,856.00","16,499.00","14,142.00",,,2,
CC,7,AP2010,"E-30, R2, AP: 10.2 kW Heater, 50' Hose, 10' Whip & Fusion AP",B-A:B-E,"28,340.00","22,672.00","19,838.00","17,004.00",,no,2,
CC,8,CS2010,"E-30, R2, CS: 10.2 kW Heater, 50' Hose, 10' Whip & Fusion CS",B-A:B-E,"28,590.00","22,872.00","20,013.00","17,154.00",,,2,
CC,9,P22010,"E-30, R2, P2: 10.2 kW Heater, 50' Hose, 10' Whip & P2 ",B-A:B-E,"28,870.00","23,096.00","20,209.00","17,322.00",,,2,
CC,10,AP2011,"E-30, R2, AP: 15.3 kW Heater, 50' Hose, 10' Whip & Fusion AP",B-A:B-E,"29,870.00","23,896.00","20,909.00","17,922.00",,no,2,
CC,11,CS2011,"E-30, R2 CS: 15.3 kW Heater, 50' Hose, 10' Whip & Fusion CS",B-A:B-E,"30,120.00","24,096.00","21,084.00","18,072.00",,,2,
CC,12,P22011,"E-30, R2, P2: 15.3 kW Heater, 50' Hose, 10' Whip & P2 ",B-A:B-E,"30,400.00","24,320.00","21,280.00","18,240.00",,,2,
CC,13,AP2110,"E-30, R2 Elite, AP: 10.2 kW Heater, 50' Hose, 10' Whip & Fusion AP",B-A:B-E,"30,750.00","24,600.00","21,525.00","18,450.00",,no,2,
CC,14,CS2110,"E-30, R2 Elite, CS: 10.2 kW Heater, 50' Hose, 10' Whip & Fusion CS",B-A:B-E,"31,010.00","24,808.00","21,707.00","18,606.00",,,2,
CC,15,P22110,"E-30, R2 Elite P2: 10.2 kW Heater, 50' Hose, 10' Whip & P2 ",B-A:B-E,"31,280.00","25,024.00","21,896.00","18,768.00",,,2,
CC,16,AP2111,"E-30, R2 Elite, AP: 15.3 kW Heater, 50' Hose, 10' Whip & Fusion AP",B-A:B-E,"32,280.00","25,824.00","22,596.00","19,368.00",,no,2,
CC,17,CS2111,"E-30, R2 Elite, CS: 15.3 kW Heater, 50' Hose, 10' Whip & Fusion CS",B-A:B-E,"32,540.00","26,032.00","22,778.00","19,524.00",,,2,
CC,18,P22111,"E-30, R2 Elite, P2: 15.3 kW Heater, 50' Hose, 10' Whip & P2 ",B-A:B-E,"32,810.00","26,248.00","22,967.00","19,686.00",,,2,
CC,19,APH031,"H-30, R2, AP: 10 kW Heater, 50' Hose, 10' Whip & Fusion AP",B-A:B-E,"32,100.00","25,680.00","22,470.00","19,260.00",,no,2,
CC,20,CSH031,"H-30, R2, CS: 10 kW Heater, 50' Hose, 10' Whip & Fusion CS",B-A:B-E,"32,350.00","25,880.00","22,645.00","19,410.00",,,2,
CC,21,P2H031,"H-30, R2, P2: 10 kW Heater, 50' Hose, 10' Whip & P2 ",B-A:B-E,"32,630.00","26,104.00","22,841.00","19,578.00",,,2,
CC,22,APH032,"H-30, R2, AP: 15 kW Heater, 50' Hose, 10' Whip & Fusion AP",B-A:B-E,"33,610.00","26,888.00","23,527.00","20,166.00",,no,2,
CC,23,CSH032,"H-30, R2, CS: 15 kW Heater, 50' Hose, 10' Whip & Fusion CS",B-A:B-E,"33,860.00","27,088.00","23,702.00","20,316.00",,,2,
CC,24,P2H032,"H-30, R2, P2: 15 kW Heater, 50' Hose, 10' Whip & P2 ",B-A:B-E,"34,140.00","27,312.00","23,898.00","20,484.00",,,2,
CC,27,APH043,"H-40, R2, AP: 15 kW Heater: 3-ph only, 50' Hose, 10' Whip & Fusion AP",B-A:B-E,"36,520.00","29,216.00","25,564.00","21,912.00",,no,2,
CC,28,P2H043,"H-40, R2, P2: 15 kW Heater: 3-ph only, 50' Hose, 10' Whip & P2 ",B-A:B-E,"37,050.00","29,640.00","25,935.00","22,230.00",,,2,
CC,29,APH044,"H-40, R2, AP: 20 kW Heater: 3-ph only, 50' Hose, 10' Whip & Fusion AP",B-A:B-E,"37,540.00","30,032.00","26,278.00","22,524.00",,no,2,
CC,30,P2H044,"H-40, R2, P2: 20 kW Heater: 3-ph only, 50' Hose, 10' Whip & P2 ",B-A:B-E,"38,070.00","30,456.00","26,649.00","22,842.00",,,2,
CC,31,AP9033,"E-XP1, AP: 10.2 kW Heater, 50' Hose, 10' Whip & Fusion AP",B-A:B-E,"24,940.00","19,952.00","17,458.00","14,964.00",,no,2,
CC,32,P29033,"E-XP1, P2: 10.2 kW Heater, 50' Hose, 10' Whip & P2 ",B-A:B-E,"25,470.00","20,376.00","17,829.00","15,282.00",,,2,
CC,33,AP2012,"E-XP2, R2, AP: 15.3 kW Heater, 50' Hose, 10' Whip & Fusion AP",B-A:B-E,"31,930.00","25,544.00","22,351.00","19,158.00",,no,2,
CC,34,P22012,"E-XP2, R2, P2: 15.3 kW Heater, 50' Hose, 10' Whip & P2 ",B-A:B-E,"32,460.00","25,968.00","22,722.00","19,476.00",,,2,
CC,35,AP2112,"E-XP2, R2 Elite, AP: 15.3 kW Heater, 50' Hose, 10' Whip & Fusion AP",B-A:B-E,"34,330.00","27,464.00","24,031.00","20,598.00",,,2,
CC,36,P22112,"E-XP2, R2 Elite, P2: 15.3 kW Heater, 50' Hose, 10' Whip & P2 ",B-A:B-E,"34,870.00","27,896.00","24,409.00","20,922.00",,,2,
CC,37,APH062,"H-XP2, R2, AP: 15 kW Heater, 50' Hose, 10' Whip & Fusion AP",B-A:B-E,"36,060.00","28,848.00","25,242.00","21,636.00",,no,2,
CC,38,P2H062,"H-XP2, R2, P2: 15 kW Heater, 50' Hose, 10' Whip & P2 ",B-A:B-E,"36,590.00","29,272.00","25,613.00","21,954.00",,,2,
CC,39,APH074,"H-XP3, R2, AP: 20 kW Heater: 3-ph only, 50' Hose, 10' Whip & Fusion AP",B-A:B-E,"38,350.00","30,680.00","26,845.00","23,010.00",,no,2,
CC,40,P2H074,"H-XP3, R2, P2: 20 kW Heater: 3-ph only, 50' Hose, 10' Whip & P2 ",B-A:B-E,"38,880.00","31,104.00","27,216.00","23,328.00",,,2,
CC,41,AP2079,"E-30i, AP, Elite: Integrated Reactor, 50' Hose, 10' Whip & Fusion AP",B-A:B-B:B-C:B-D:D-0:D-1:D-2:D-3:D-4:D-5:D-6:D-7:D-8:D-9:D-10:D-11:D-12:D-13:D-14,"60,550.00","48,440.00","42,385.00","36,330.00",,no,2,
CC,42,CS2079,"E-30i, CS, Elite: Integrated Reactor, 50' Hose, 10' Whip & Fusion CS",B-A:B-B:B-C:B-D:D-0:D-1:D-2:D-3:D-4:D-5:D-6:D-7:D-8:D-9:D-10:D-11:D-12:D-13:D-14,"60,810.00","48,648.00","42,567.00","36,486.00",,,2,
CC,43,P22079,"E-30i, P2, Elite: Integrated Reactor, 50' Hose, 10' Whip & P2 ",B-A:B-B:B-C:B-D:D-0:D-1:D-2:D-3:D-4:D-5:D-6:D-7:D-8:D-9:D-10:D-11:D-12:D-13:D-14,"61,080.00","48,864.00","42,756.00","36,648.00",,,2,
CC,44,AP2080,"E-30i, AP, Elite, High Heat: Integrated Reactor, 50' Hose, 10' Whip & Fusion AP",B-A:B-B:B-C:B-D:D-0:D-1:D-2:D-3:D-4:D-5:D-6:D-7:D-8:D-9:D-10:D-11:D-12:D-13:D-14,"63,640.00","50,912.00","44,548.00","38,184.00",,no,2,
CC,45,CS2080,"E-30i, CS, Elite, High Heat: Integrated Reactor, 50' Hose, 10' Whip & Fusion CS",B-A:B-B:B-C:B-D:D-0:D-1:D-2:D-3:D-4:D-5:D-6:D-7:D-8:D-9:D-10:D-11:D-12:D-13:D-14,"63,900.00","51,120.00","44,730.00","38,340.00",,,2,
CC,46,P22080,"E-30i, P2, Elite, High Heat: Integrated Reactor, 50' Hose, 10' Whip & P2 ",B-A:B-B:B-C:B-D:D-0:D-1:D-2:D-3:D-4:D-5:D-6:D-7:D-8:D-9:D-10:D-11:D-12:D-13:D-14,"64,170.00","51,336.00","44,919.00","38,502.00",,,2,
CC,47,AP2081,"E-XP2i, AP, Elite: Integrated Reactor, 50' Hose, 10' Whip & Fusion AP",B-A:B-B:B-C:B-D:D-0:D-1:D-2:D-3:D-4:D-5:D-6:D-7:D-8:D-9:D-10:D-11:D-12:D-13:D-14,"65,620.00","52,496.00","45,934.00","39,372.00",,no,2,
CC,48,P22081,"E-XP2i, P2, Elite: Integrated Reactor, 50' Hose, 10' Whip & P2 ",B-A:B-B:B-C:B-D:D-0:D-1:D-2:D-3:D-4:D-5:D-6:D-7:D-8:D-9:D-10:D-11:D-12:D-13:D-14,"66,160.00","52,928.00","46,312.00","39,696.00",,,2,
D,1,,"110 ft: 2,000 psi",CC-7:CC-8:CC-9:CC-10:CC-11:CC-12:CC-13:CC-14:CC-15:CC-16:CC-17:CC-18:CC-31:CC-32:CC-33:CC-34:CC-35:CC-36:CC-37:CC-38:CC-39:CC-40,"1,800.00","1,440.00","1,260.00","1,080.00",,no,2,
D,2,,"110 ft: 3,500 psi",CC-4:CC-5:CC-6:CC-7:CC-8:CC-9:CC-10:CC-11:CC-12:CC-13:CC-14:CC-15:CC-16:CC-17:CC-18:CC-19:CC-20:CC-21:CC-22:CC-23:CC-24:CC-25:CC-26:CC-27:CC-28:CC-29:CC-30:CC-33:CC-34:CC-35:CC-36:CC-41:CC-42:CC-43:CC-44:CC-45:CC-46:CC-47:CC-48,"2,540.00","2,032.00","1,778.00","1,524.00",,no,2,
D,3,,"160 ft: 2,000 psi",CC-7:CC-8:CC-9:CC-10:CC-11:CC-12:CC-13:CC-14:CC-15:CC-16:CC-17:CC-18:CC-31:CC-32:CC-33:CC-34:CC-35:CC-36:CC-37:CC-38:CC-39:CC-40,"3,600.00","2,880.00","2,520.00","2,160.00",,no,2,
D,4,,"160 ft: 3,500 psi",CC-4:CC-5:CC-6:CC-7:CC-8:CC-9:CC-10:CC-11:CC-12:CC-13:CC-14:CC-15:CC-16:CC-17:CC-18:CC-19:CC-20:CC-21:CC-22:CC-23:CC-24:CC-25:CC-26:CC-27:CC-28:CC-29:CC-30:CC-33:CC-34:CC-35:CC-36:CC-41:CC-42:CC-43:CC-44:CC-45:CC-46:CC-47:CC-48,"5,080.00","4,064.00","3,556.00","3,048.00",,no,2,
D,5,,"210 ft: 2,000 psi",CC-7:CC-8:CC-9:CC-10:CC-11:CC-12:CC-13:CC-14:CC-15:CC-16:CC-17:CC-18:CC-31:CC-32:CC-33:CC-34:CC-35:CC-36:CC-37:CC-38:CC-39:CC-40,"5,400.00","4,320.00","3,780.00","3,240.00",,no,2,
D,6,,"210 ft: 3,500 psi",CC-4:CC-5:CC-6:CC-7:CC-8:CC-9:CC-10:CC-11:CC-12:CC-13:CC-14:CC-15:CC-16:CC-17:CC-18:CC-19:CC-20:CC-21:CC-22:CC-23:CC-24:CC-25:CC-26:CC-27:CC-28:CC-29:CC-30:CC-33:CC-34:CC-35:CC-36:CC-41:CC-42:CC-43:CC-44:CC-45:CC-46:CC-47:CC-48,"7,620.00","6,096.00","5,334.00","4,572.00",,no,2,
D,7,,"260 ft: 2,000 psi",CC-4:CC-5:CC-6:CC-7:CC-8:CC-9:CC-10:CC-11:CC-12:CC-13:CC-14:CC-15:CC-16:CC-17:CC-18:CC-31:CC-32:CC-33:CC-34:CC-35:CC-36:CC-37:CC-38:CC-39:CC-40,"7,200.00","5,760.00","5,040.00","4,320.00",,no,2,
D,8,,"260 ft: 3,500 psi",CC-4:CC-5:CC-6:CC-7:CC-8:CC-9:CC-10:CC-11:CC-12:CC-13:CC-14:CC-15:CC-16:CC-17:CC-18:CC-19:CC-20:CC-21:CC-22:CC-23:CC-24:CC-25:CC-26:CC-27:CC-28:CC-29:CC-30:CC-31:CC-32:CC-33:CC-34:CC-35:CC-36:CC-41:CC-42:CC-43:CC-44:CC-45:CC-46:CC-47:CC-48,"10,160.00","8,128.00","7,112.00","6,096.00",,no,2,
D,9,,"310 ft: 2,000 psi",CC-4:CC-5:CC-6:CC-7:CC-8:CC-9:CC-10:CC-11:CC-12:CC-13:CC-14:CC-15:CC-16:CC-17:CC-18:CC-31:CC-32:CC-33:CC-34:CC-35:CC-36:CC-37:CC-38:CC-39:CC-40,"9,000.00","7,200.00","6,300.00","5,400.00",,no,2,
D,10,,"310 ft: 3,500 psi",CC-4:CC-5:CC-6:CC-7:CC-8:CC-9:CC-10:CC-11:CC-12:CC-13:CC-14:CC-15:CC-16:CC-17:CC-18:CC-19:CC-20:CC-21:CC-22:CC-23:CC-24:CC-25:CC-26:CC-27:CC-28:CC-29:CC-30:CC-31:CC-32:CC-33:CC-34:CC-35:CC-36:CC-41:CC-42:CC-43:CC-44:CC-45:CC-46:CC-47:CC-48,"12,700.00","10,160.00","8,890.00","7,620.00",,no,2,
D,11,,"360 ft: 2,000 psi",CC-4:CC-5:CC-6:CC-7:CC-8:CC-9:CC-10:CC-11:CC-12:CC-13:CC-14:CC-15:CC-16:CC-17:CC-18:CC-19:CC-20:CC-21:CC-22:CC-23:CC-24:CC-31:CC-32:CC-33:CC-34:CC-35:CC-36:CC-37:CC-38:CC-39:CC-40,"10,800.00","8,640.00","7,560.00","6,480.00",,no,2,
D,12,,"360 ft: 3,500 psi",CC-4:CC-5:CC-6:CC-7:CC-8:CC-9:CC-10:CC-11:CC-12:CC-13:CC-14:CC-15:CC-16:CC-17:CC-18:CC-19:CC-20:CC-21:CC-22:CC-23:CC-24:CC-25:CC-26:CC-27:CC-28:CC-29:CC-30:CC-31:CC-32:CC-33:CC-34:CC-35:CC-36:CC-37:CC-38:CC-41:CC-42:CC-43:CC-44:CC-45:CC-46:CC-47:CC-48,"15,240.00","12,192.00","10,668.00","9,144.00",,no,2,
D,13,,"410 ft: 2,000 psi",CC-4:CC-5:CC-6:CC-7:CC-8:CC-9:CC-10:CC-11:CC-12:CC-13:CC-14:CC-15:CC-16:CC-17:CC-18:CC-19:CC-20:CC-21:CC-22:CC-23:CC-24:CC-31:CC-32:CC-33:CC-34:CC-35:CC-36:CC-37:CC-38:CC-39:CC-40,"12,600.00","10,080.00","8,820.00","7,560.00",,no,2,
D,14,,"410 ft: 3,500 psi",CC-4:CC-5:CC-6:CC-7:CC-8:CC-9:CC-10:CC-11:CC-12:CC-13:CC-14:CC-15:CC-16:CC-17:CC-18:CC-19:CC-20:CC-21:CC-22:CC-23:CC-24:CC-25:CC-26:CC-27:CC-28:CC-29:CC-30:CC-31:CC-32:CC-33:CC-34:CC-35:CC-36:CC-37:CC-38:CC-41:CC-42:CC-43:CC-44:CC-45:CC-46:CC-47:CC-48,"17,780.00","14,224.00","12,446.00","10,668.00",,no,2,
D,17,,"110 ft: RTD: 2,000 psi",CC-4:CC-5:CC-6:CC-19:CC-20:CC-21:CC-22:CC-23:CC-24:CC-25:CC-26:CC-27:CC-28:CC-29:CC-30:CC-31:CC-32:CC-33:CC-34:CC-35:CC-36:CC-37:CC-38:CC-39:CC-40:CC-47:CC-48,"1,800.00","1,440.00","1,260.00","1,080.00",,no,2,
D,18,,"110 ft: RTD: 3,500 psi",CC-4:CC-5:CC-6:CC-7:CC-8:CC-9:CC-10:CC-11:CC-12:CC-13:CC-14:CC-15:CC-16:CC-17:CC-18:CC-19:CC-20:CC-21:CC-22:CC-23:CC-24:CC-25:CC-26:CC-27:CC-28:CC-29:CC-30:CC-31:CC-32:CC-37:CC-38:CC-39:CC-40:CC-41:CC-42:CC-43:CC-44:CC-45:CC-46,"2,540.00","2,032.00","1,778.00","1,524.00",,no,2,
D,19,,"160 ft: RTD: 2,000 psi",CC-4:CC-5:CC-6:CC-19:CC-20:CC-21:CC-22:CC-23:CC-24:CC-25:CC-26:CC-27:CC-28:CC-29:CC-30:CC-31:CC-32:CC-33:CC-34:CC-35:CC-36:CC-37:CC-38:CC-39:CC-40:CC-47:CC-48,"3,600.00","2,880.00","2,520.00","2,160.00",,no,2,
D,20,,"160 ft: RTD: 3,500 psi",CC-4:CC-5:CC-6:CC-7:CC-8:CC-9:CC-10:CC-11:CC-12:CC-13:CC-14:CC-15:CC-16:CC-17:CC-18:CC-19:CC-20:CC-21:CC-22:CC-23:CC-24:CC-25:CC-26:CC-27:CC-28:CC-29:CC-30:CC-31:CC-32:CC-37:CC-38:CC-39:CC-40:CC-41:CC-42:CC-43:CC-44:CC-45:CC-46,"5,080.00","4,064.00","3,556.00","3,048.00",,no,2,
D,21,,"210 ft: RTD: 2,000 psi",CC-4:CC-5:CC-6:CC-19:CC-20:CC-21:CC-22:CC-23:CC-24:CC-25:CC-26:CC-27:CC-28:CC-29:CC-30:CC-31:CC-32:CC-33:CC-34:CC-35:CC-36:CC-37:CC-38:CC-39:CC-40:CC-47:CC-48,"5,400.00","4,320.00","3,780.00","3,240.00",,no,2,
D,22,,"210 ft: RTD: 3,500 psi",CC-4:CC-5:CC-6:CC-7:CC-8:CC-9:CC-10:CC-11:CC-12:CC-13:CC-14:CC-15:CC-16:CC-17:CC-18:CC-19:CC-20:CC-21:CC-22:CC-23:CC-24:CC-25:CC-26:CC-27:CC-28:CC-29:CC-30:CC-31:CC-32:CC-37:CC-38:CC-39:CC-40:CC-41:CC-42:CC-43:CC-44:CC-45:CC-46,"7,620.00","6,096.00","5,334.00","4,572.00",,no,2,
D,23,,"260 ft: RTD: 2,000 psi",CC-4:CC-5:CC-6:CC-19:CC-20:CC-21:CC-22:CC-23:CC-24:CC-25:CC-26:CC-27:CC-28:CC-29:CC-30:CC-31:CC-32:CC-33:CC-34:CC-35:CC-36:CC-37:CC-38:CC-39:CC-40:CC-47:CC-48,"7,200.00","5,760.00","5,040.00","4,320.00",,no,2,
D,24,,"260 ft: RTD: 3,500 psi",CC-4:CC-5:CC-6:CC-7:CC-8:CC-9:CC-10:CC-11:CC-12:CC-13:CC-14:CC-15:CC-16:CC-17:CC-18:CC-19:CC-20:CC-21:CC-22:CC-23:CC-24:CC-25:CC-26:CC-27:CC-28:CC-29:CC-30:CC-31:CC-32:CC-37:CC-38:CC-39:CC-40:CC-41:CC-42:CC-43:CC-44:CC-45:CC-46,"10,160.00","8,128.00","7,112.00","6,096.00",,no,2,
D,25,,"310 ft: RTD: 2,000 psi",CC-4:CC-5:CC-6:CC-19:CC-20:CC-21:CC-22:CC-23:CC-24:CC-25:CC-26:CC-27:CC-28:CC-29:CC-30:CC-31:CC-32:CC-33:CC-34:CC-35:CC-36:CC-37:CC-38:CC-39:CC-40:CC-47:CC-48,"9,000.00","7,200.00","6,300.00","5,400.00",,no,2,
D,26,,"310 ft: RTD: 3,500 psi",CC-4:CC-5:CC-6:CC-7:CC-8:CC-9:CC-10:CC-11:CC-12:CC-13:CC-14:CC-15:CC-16:CC-17:CC-18:CC-19:CC-20:CC-21:CC-22:CC-23:CC-24:CC-25:CC-26:CC-27:CC-28:CC-29:CC-30:CC-31:CC-32:CC-37:CC-38:CC-39:CC-40:CC-41:CC-42:CC-43:CC-44:CC-45:CC-46,"12,700.00","10,160.00","8,890.00","7,620.00",,no,2,
D,27,,"110 ft: RTD: 2,000 psi, Extreme Cover",CC-4:CC-5:CC-6:CC-19:CC-20:CC-21:CC-22:CC-23:CC-24:CC-25:CC-26:CC-27:CC-28:CC-29:CC-30:CC-31:CC-32:CC-33:CC-34:CC-35:CC-36:CC-37:CC-38:CC-39:CC-40:CC-47:CC-48,"2,050.00","1,640.00","1,435.00","1,230.00",,,2,
D,28,,"110 ft: RTD: 3,500 psi, Extreme Cover",CC-4:CC-5:CC-6:CC-7:CC-8:CC-9:CC-10:CC-11:CC-12:CC-13:CC-14:CC-15:CC-16:CC-17:CC-18:CC-19:CC-20:CC-21:CC-22:CC-23:CC-24:CC-25:CC-26:CC-27:CC-28:CC-29:CC-30:CC-31:CC-32:CC-37:CC-38:CC-39:CC-40:CC-41:CC-42:CC-43:CC-44:CC-45:CC-46,"2,790.00","2,232.00","1,953.00","1,674.00",,,2,
D,29,,"160 ft: RTD: 2,000 psi, Extreme Cover",CC-4:CC-5:CC-6:CC-19:CC-20:CC-21:CC-22:CC-23:CC-24:CC-25:CC-26:CC-27:CC-28:CC-29:CC-30:CC-31:CC-32:CC-33:CC-34:CC-35:CC-36:CC-37:CC-38:CC-39:CC-40:CC-47:CC-48,"4,100.00","3,280.00","2,870.00","2,460.00",,,2,
D,30,,"160 ft: RTD: 3,500 psi, Extreme Cover",CC-4:CC-5:CC-6:CC-7:CC-8:CC-9:CC-10:CC-11:CC-12:CC-13:CC-14:CC-15:CC-16:CC-17:CC-18:CC-19:CC-20:CC-21:CC-22:CC-23:CC-24:CC-25:CC-26:CC-27:CC-28:CC-29:CC-30:CC-31:CC-32:CC-37:CC-38:CC-39:CC-40:CC-41:CC-42:CC-43:CC-44:CC-45:CC-46,"5,580.00","4,464.00","3,906.00","3,348.00",,,2,
D,31,,"210 ft: RTD: 2,000 psi, Extreme Cover",CC-4:CC-5:CC-6:CC-19:CC-20:CC-21:CC-22:CC-23:CC-24:CC-25:CC-26:CC-27:CC-28:CC-29:CC-30:CC-31:CC-32:CC-33:CC-34:CC-35:CC-36:CC-37:CC-38:CC-39:CC-40:CC-47:CC-48,"6,150.00","4,920.00","4,305.00","3,690.00",,,2,
D,32,,"210 ft: RTD: 3,500 psi, Extreme Cover",CC-4:CC-5:CC-6:CC-7:CC-8:CC-9:CC-10:CC-11:CC-12:CC-13:CC-14:CC-15:CC-16:CC-17:CC-18:CC-19:CC-20:CC-21:CC-22:CC-23:CC-24:CC-25:CC-26:CC-27:CC-28:CC-29:CC-30:CC-31:CC-32:CC-37:CC-38:CC-39:CC-40:CC-41:CC-42:CC-43:CC-44:CC-45:CC-46,"8,370.00","6,696.00","5,859.00","5,022.00",,,2,
D,33,,"260 ft: RTD: 2,000 psi, Extreme Cover",CC-4:CC-5:CC-6:CC-19:CC-20:CC-21:CC-22:CC-23:CC-24:CC-25:CC-26:CC-27:CC-28:CC-29:CC-30:CC-31:CC-32:CC-33:CC-34:CC-35:CC-36:CC-37:CC-38:CC-39:CC-40:CC-47:CC-48,"8,200.00","6,560.00","5,740.00","4,920.00",,,2,
D,34,,"260 ft: RTD: 3,500 psi, Extreme Cover",CC-4:CC-5:CC-6:CC-7:CC-8:CC-9:CC-10:CC-11:CC-12:CC-13:CC-14:CC-15:CC-16:CC-17:CC-18:CC-19:CC-20:CC-21:CC-22:CC-23:CC-24:CC-25:CC-26:CC-27:CC-28:CC-29:CC-30:CC-31:CC-32:CC-37:CC-38:CC-39:CC-40:CC-41:CC-42:CC-43:CC-44:CC-45:CC-46,"11,160.00","8,928.00","7,812.00","6,696.00",,,2,
D,35,,"310 ft: RTD: 2,000 psi, Extreme Cover",CC-4:CC-5:CC-6:CC-19:CC-20:CC-21:CC-22:CC-23:CC-24:CC-25:CC-26:CC-27:CC-28:CC-29:CC-30:CC-31:CC-32:CC-33:CC-34:CC-35:CC-36:CC-37:CC-38:CC-39:CC-40:CC-47:CC-48,"10,250.00","8,200.00","7,175.00","6,150.00",,,2,
D,36,,"310 ft: RTD: 3,500 psi, Extreme Cover",CC-4:CC-5:CC-6:CC-7:CC-8:CC-9:CC-10:CC-11:CC-12:CC-13:CC-14:CC-15:CC-16:CC-17:CC-18:CC-19:CC-20:CC-21:CC-22:CC-23:CC-24:CC-25:CC-26:CC-27:CC-28:CC-29:CC-30:CC-31:CC-32:CC-37:CC-38:CC-39:CC-40:CC-41:CC-42:CC-43:CC-44:CC-45:CC-46,"13,950.00","11,160.00","9,765.00","8,370.00",,,2,
D,37,,"360 ft: RTD: 2,000 psi",CC-4:CC-5:CC-6:CC-7:CC-8:CC-9:CC-10:CC-11:CC-12:CC-13:CC-14:CC-15:CC-16:CC-17:CC-18:CC-19:CC-20:CC-21:CC-22:CC-23:CC-24:CC-31:CC-32:CC-33:CC-34:CC-35:CC-36:CC-37:CC-38:CC-39:CC-40,"12,050.00","9,640.00","8,435.00","7,230.00",,,2,
D,38,,"360 ft: RTD: 3,500 psi",CC-4:CC-5:CC-6:CC-7:CC-8:CC-9:CC-10:CC-11:CC-12:CC-13:CC-14:CC-15:CC-16:CC-17:CC-18:CC-19:CC-20:CC-21:CC-22:CC-23:CC-24:CC-25:CC-26:CC-27:CC-28:CC-29:CC-30:CC-31:CC-32:CC-33:CC-34:CC-35:CC-36:CC-37:CC-38:CC-41:CC-42:CC-43:CC-44:CC-45:CC-46:CC-47:CC-48,"16,490.00","13,192.00","11,543.00","9,894.00",,,2,
D,39,,"410 ft: RTD: 2,000 psi",CC-4:CC-5:CC-6:CC-7:CC-8:CC-9:CC-10:CC-11:CC-12:CC-13:CC-14:CC-15:CC-16:CC-17:CC-18:CC-19:CC-20:CC-21:CC-22:CC-23:CC-24:CC-31:CC-32:CC-33:CC-34:CC-35:CC-36:CC-37:CC-38:CC-39:CC-40,"13,850.00","11,080.00","9,695.00","8,310.00",,,2,
D,40,,"410 ft: RTD: 3,500 psi",CC-4:CC-5:CC-6:CC-7:CC-8:CC-9:CC-10:CC-11:CC-12:CC-13:CC-14:CC-15:CC-16:CC-17:CC-18:CC-19:CC-20:CC-21:CC-22:CC-23:CC-24:CC-25:CC-26:CC-27:CC-28:CC-29:CC-30:CC-31:CC-32:CC-33:CC-34:CC-35:CC-36:CC-37:CC-38:CC-41:CC-42:CC-43:CC-44:CC-45:CC-46:CC-47:CC-48,"19,030.00","15,224.00","13,321.00","11,418.00",,,2,
D,41,,"360 ft: RTD: 2,000 psi, Extreme Cover",CC-4:CC-5:CC-6:CC-7:CC-8:CC-9:CC-10:CC-11:CC-12:CC-13:CC-14:CC-15:CC-16:CC-17:CC-18:CC-19:CC-20:CC-21:CC-22:CC-23:CC-24:CC-31:CC-32:CC-33:CC-34:CC-35:CC-36:CC-37:CC-38:CC-39:CC-40,"15,900.00","12,720.00","11,130.00","9,540.00",,,2,
D,42,,"360 ft: RTD: 3,500 psi, Extreme Cover",CC-4:CC-5:CC-6:CC-7:CC-8:CC-9:CC-10:CC-11:CC-12:CC-13:CC-14:CC-15:CC-16:CC-17:CC-18:CC-19:CC-20:CC-21:CC-22:CC-23:CC-24:CC-25:CC-26:CC-27:CC-28:CC-29:CC-30:CC-31:CC-32:CC-33:CC-34:CC-35:CC-36:CC-37:CC-38:CC-41:CC-42:CC-43:CC-44:CC-45:CC-46:CC-47:CC-48,"21,820.00","17,456.00","15,274.00","13,092.00",,,2,
D,43,,"410 ft: RTD: 2,000 psi, Extreme Cover",CC-4:CC-5:CC-6:CC-7:CC-8:CC-9:CC-10:CC-11:CC-12:CC-13:CC-14:CC-15:CC-16:CC-17:CC-18:CC-19:CC-20:CC-21:CC-22:CC-23:CC-24:CC-31:CC-32:CC-33:CC-34:CC-35:CC-36:CC-37:CC-38:CC-39:CC-40,"17,950.00","14,360.00","12,565.00","10,770.00",,,2,
D,44,,"410 ft: RTD: 3,500 psi, Extreme Cover",CC-4:CC-5:CC-6:CC-7:CC-8:CC-9:CC-10:CC-11:CC-12:CC-13:CC-14:CC-15:CC-16:CC-17:CC-18:CC-19:CC-20:CC-21:CC-22:CC-23:CC-24:CC-25:CC-26:CC-27:CC-28:CC-29:CC-30:CC-31:CC-32:CC-33:CC-34:CC-35:CC-36:CC-37:CC-38:CC-41:CC-42:CC-43:CC-44:CC-45:CC-46:CC-47:CC-48,"24,610.00","19,688.00","17,227.00","14,766.00",,,2,
EE,0,,No Extra Gun,,0,0,0,0,,,2,
EE,1,246101,Extra Fusion Air Purge,,"2,490.00","1,992.00","1,743.00","1,494.00",,no,2,
EE,3,CS01RD,Extra Fusion Clear Shot,,"2,770.00","2,216.00","1,939.00","1,662.00",,no,2,
EE,7,GCP2R1,Extra Probler P2,,"3,120.00","2,496.00","2,184.00","1,872.00",,no,2,
F,1,,T:1 Feed Pumps,CC-7:CC-8:CC-9:CC-10:CC-11:CC-12:CC-13:CC-14:CC-15:CC-16:CC-17:CC-18:CC-19:CC-20:CC-21:CC-22:CC-23:CC-24:CC-25:CC-26:CC-27:CC-28:CC-29:CC-30:CC-31:CC-32:CC-33:CC-34:CC-35:CC-36:CC-37:CC-38:CC-39:CC-40:CC-41:CC-42:CC-43:CC-44:CC-45:CC-46,"2,460.00","1,968.00","1,722.00","1,476.00",,no,2,
F,2,295616,T:2 Feed Pumps,B-A,"3,640.00","2,912.00","2,548.00","2,184.00",,no,2,
F,3,,Husky 1050 Feed Pumps (Open cell foam only),B-A:B-E,"2,980.00","2,384.00","2,086.00","1,788.00",,no,2,
F,4,,Triton 308 Feed Pumps (Polyurea only),B-E:CC-4:CC-5:CC-6:CC-7:CC-8:CC-9:CC-10:CC-11:CC-12:CC-13:CC-14:CC-15:CC-16:CC-17:CC-18:CC-19:CC-20:CC-21:CC-22:CC-23:CC-24:CC-25:CC-26:CC-27:CC-28:CC-29:CC-30:CC-37:CC-38:CC-39:CC-40,"2,150.00","1,720.00","1,505.00","1,290.00",,no,2,
GG,0,,None,B-E,0,0,0,0,,no,,
GG,1,,Manifold Circulation Kit only,,790,702.5,624.44,624.44,,no,,
GG,2,,Manifold AND Heated Hose Circulation Kit,,"1,395.00","1,238.75","1,101.11","1,101.11",,no,,
H,0,,None,,0,0,0,0,,no,2,
H,1,224854,Twistork: Graco: one,,"1,315.00","1,315.00","1,117.75",986.25,,no,2,
H,2,,Twistork: Graco: two,,"2,540.00","2,286.00","2,159.00","1,905.00",,no,2,
H,3,,Graco Low Viscosity Expanding Blades Agitator,,816,816,693.6,612,,,2,
H,4,,Graco High Viscosity Expanding Blades Agitator,,879,879,747.15,659.25,,,2,
II,1,,18 kW 1-ph Gas Portable,B-B:B-C:B-D:CC-7:CC-8:CC-9:CC-10:CC-11:CC-12:CC-13:CC-14:CC-15:CC-16:CC-17:CC-18:CC-19:CC-20:CC-21:CC-22:CC-23:CC-24:CC-25:CC-26:CC-27:CC-28:CC-29:CC-30:CC-31:CC-32:CC-33:CC-34:CC-35:CC-36:CC-37:CC-38:CC-39:CC-40:CC-41:CC-42:CC-43:CC-44:CC-45:CC-46:CC-47:CC-48:B-E,"4,374.00","4,374.00","3,969.00","3,969.00",,no,,
II,2,,20 kW 1-ph Diesel,B-B:B-C:B-D:B-E,"20,190.00","20,190.00","17,900.00","17,900.00",,no,,
II,3,,40 kW 3-ph Diesel,B-E:B-A,"17,225.00","17,225.00","14,988.00","14,988.00",,no,,
II,4,,22 kW 1-ph Diesel: Perkins (Included w Intergrated Reactor),B-A:B-B:B-C:B-D,0,0,0,0,,no,,
J,1,,3.5 hp electric: 60 gal vertical,B-B:B-C:B-D:B-E:II-1,"2,017.05","2,017.05","1,741.95","1,741.95",,no,,
J,2,,Gas Compressor,B-B:B-C:B-D:B-E:II-2:II-3:II-4,"2,291.10","2,291.10","1,569.75","1,569.75",,no,,
J,3,,5 hp electric: 60 gal vertical,B-A:B-C:B-E,"2,321.55","2,321.55","2,028.60","2,028.60",,no,,
J,4,,5 hp electric: 60 gal horizontal (gooseneck only),B-A:B-B:B-D:B-E,"2,769.90","2,769.90","2,421.30","2,421.30",,no,,
J,5,,7.5 hp electric: 60 gal vertical,B-A:B-C:B-E,"3,565.80","3,565.80","3,241.88","3,241.88",,no,,
J,6,,7.5 hp electric: 60 gal horizontal (gooseneck only),B-A:B-B:B-D:B-E,"3,565.80","3,565.80","3,241.88","3,241.88",,no,,
J,7,,Screw Compressor: mounted on 40kW Generator,B-A:B-E,"6,092.10","6,092.10","5,583.90","5,583.90",,no,,
J,8,,5 hp electric Hydrovane compressor,B-A:B-B:B-C:B-D,"4,856.25","4,856.25","4,317.60","4,317.60",,no,,
KK,1,,3 Stage Desiccant Dryaire System,J-7:B-E,546,546,486.15,486.15,,no,,
KK,2,,Electric Drier for 3.5 hp compressor,J-3:J-4:J-5:J-6:J-7:B-E,"1,377.60","1,377.60","1,215.90","1,215.90",,no,,
KK,3,,Electric Drier for 5 hp - 7.5 hp compressor,J-1:J-2:J-7:B-E,"1,440.60","1,440.60","1,243.20","1,243.20",,no,,
KK,4,,Electric Drier for Screw Compressor: High inlet temp capable,J-1:J-2:J-3:J-4:J-5:J-6:B-E,"3,386.25","2,966.25","2,669.10","2,669.10",,no,,
KK,5,,Electric Drier for Hydrovane Compressor,B-A:B-B:B-C:B-D,"1,440.60","1,440.60","1,243.20","1,243.20",,no,,
L,0,,None,,0,0,0,0,,no,,
L,1,,"Marthech Grade D System w 300' hose, mask and calibration kit",B-A:J-3:J-4:KK-1,"3,868.20","3,868.20","3,384.15","3,384.15",,no,,
L,2,,"Bullard Grade D System w 300' hose, mask and calibration kit",B-A:J-3:J-4:KK-1,"3,628.80","3,628.80","3,175.20","3,175.20",,,,
L,3,,Allegro single worker portable w 100' hose and mask,,"1,125.00","1,068.75",956.25,956.25,,,,
L,4,,Allegro dual worker portable w 100' hose and mask,,"1,885.00","1,790.75","1,602.25","1,602.25",,no,,
L,5,,Bullard single worker portable w 100' hose and mask,,"1,453.00","1,307.70","1,089.75",980.78,,,,
L,6,,Bullard dual worker portable w 100' hose and mask,,"1,761.00","1,584.00","1,333.00","1,333.00",,,,
MM,0,,None,,0,0,0,0,,no,,
MM,1,,110 volt electric,,440,440,385,385,,no,,
MM,2,,220 volt electric,II-1:CC-44:CC-45:CC-46:CC-47:CC-48,498,498,436,436,,no,,
MM,3,,AirTronic Heat System,,"5,145.00","5,145.00","4,502.40","4,502.40",,no,,
N,0,,None,,0,0,0,0,,no,,
N,1,,110 volt roof mounted AC w heat,,"1,109.85","1,109.85",971.25,971.25,,no,,