USERNAME,COMPANY NAME,EMAIL,PHONE,PASSWORD,TYPE,LOGO,FOOTER
cjsdealer,Dealer,CJ Spray Dealer,,cjdealer14,1,cjspray.png,"©2018 CJ Spray Inc. - Minneapolis | St. Paul, Minnesota <br /> 2845 W Service Rd, Eagan, MN 55121 <br /> Toll Free: 1-888-CJSPRAY (888-257-7729) Local: 651-455-0880 Fax: 651-450-5671 <br /> Email: customerservice@cjspray.com"
jaytord,Dealer,Sherwin Williams,,cjdealer14,2,,
cbryntesen,Dealer,Chris Bryntesen,,cjdealer14,2,,
rhino,Dealer,Rhino,,cjdealer14,2,rhino.png,"©2018 Rhino Liners, Inc. <br /> 9151, Rehco Road, San Diego, CA 92121 <br /> Toll Free: (800) 422-2603 Local: (858) 450-0441 Fax: (858) 450-6881 <br /> www.rhinolinings.com"
basf,Dealer,BASF,,cjdealer14,2,basf.png,"©2018 BASF <br /> 1213 Greenville HWY, Central, SC 29630 <br /> Toll Free: (800) 706-0712 <br /> www.spf.basf.com"
diamondliners,Dealer,Diamond Liners,,cjdealer14,2,diamond.png,"©2018 Diamond Liners <br /> 9507 Santa Fe Springs Road, Santa Fe Springs, CA 90670 <br /> (800) 543-1212 Fax: 651-450-5671 <br /> www.diamondliners.com"
swd,Dealer,SWD,,cjdealer14,2,swd.png,"©2018 SWD Urethane <br /> 540 South Drew Street, Mesa, AZ 85210 <br /> Toll Free: (800) 828-1394 <br /> Email: customerservice@cjspray.com"
lapolla,Dealer,Lapolla,,lapolla16,2,lapolla_logo.jpg,"©2018 Lapolla Industries, Inc. <br /> 15402 Vantage Pkwy E, Suite 322, Houston, TX 77032 <br /> Toll Free: (888) 4-lapolla <br /> Email: info@lapolla.com"
mcc,Dealer,MCC,,cjdealer14,2,,"©2018 MCC Equipment <br /> 2705 E Main Street, Plainfield, IN 46168 <br /> Local: (317) 209-1111 Fax: (317) 876-3554 <br /> www.mccind.com"
parkerlajoie,Dealer,Parker-Lajoie,,cjdealer14,2,,©2018 Parker-Lajoie
polysource,Dealer,Polysource,,cjdealer14,1,psi-logo.jpg,"©2018 Poly-Source Industries <br /> 1-19725 Telegraph Trail, Langley, BC V1M 3E6, Canada <br /> Local: (604) 888-3503 Fax: (604) 888-3503 <br /> Email: info@polysource.ca"
swrep,Dealer,SWREP,,cjdealer14,1,sherwin.png,©2018 The Sherwin-Williams Company <br />
csi,Dealer,CSI,,cjdealer14,1,csi.png,"©2018 CSI Wholesale <br /> 9792 Ulysses St NE, Blaine, MN 55434 <br /> Toll Free: (877) 786-2901 Local: (763) 786-2900 Fax: (763) 786-2906 <br /> Email: info@centralstatesinsulation.com"
idi,Dealer,IDI,,cjdealer14,2,idi.png,"©2018 IDI Distributors <br /> Minneapolis, MN <br /> Toll Free: (888) 843-1318 <br /> idi-insulation.com"
paintpumppros,Dealer,Paint Pump Pros,,cjdealer14,1,paint_pump_pros.png,
sprayequip,Dealer,Spray Equipment & Service Center,,cjdealer14,2,sprayequip-logo.png,"©2018 Spray Equipment & Service Center <br /> http://www.sprayequipment.com <br /> Corporate Office <br /> (800) 666-6072 <br /> 311 Pattie Wichita, KS 67211 <br /> Arlington, TX <br /> (800) 666-6072 <br /> 1312 E Corporate Dr, Suite F <br />  Arlington, TX 76006 <br /> Wichita, KS <br /> (800) 666-6072 <br /> 311 Pattie - Wichita, KS 67211 <br /> Columbus, IN <br /> (800) 666-6072 <br /> 4412 N Long Rd - Columbus, IN 47203 <br /> Omaha, NE <br /> (800) 666-6072 <br /> 9855 S 140th St #8 <br /> Omaha, NE 68138"
general,Dealer,General Insulation Company,,cjdealer14,1,GIC_logo-cmyk1.png,"©2018 General Insulation Company, Inc. <br /> Medford, MA <br /> Toll Free: (800) 442-6662 <br />http://www.generalinsulation.com/"
accella,Dealer,Accella,,cjdealer14,2,accella-logo.jpg,©2018 Accella Polyurethane Systems.  http://accellapolyurethane.com
jm,Dealer,Johns Manville,,cjdealer14,2,jm.jpg,©2018 Johns Manville. A Berkshire Hathaway Company
rgarcia,Dealer,Lapolla,,lapolla17,1,lapolla_logo.jpg,"©2018 Lapolla Industries, Inc. <br /> 15402 Vantage Pkwy E, Suite 322, Houston, TX 77032 <br /> Toll Free: (888) 4-lapolla <br /> Email: rgarcia@lapolla.com"